{
  "Bloomberg": {
    "domain": "bloomberg.com",
    "allow_cookies": 1,
    "block_regex": "(\\.cm\\.bloomberg\\.com\\/|assets\\.bwbx\\.io\\/s\\d\\/javelin\\/.+\\/transporter\\/)",
    "upd_version": "3.2.7.1"
  },
  "Die Zeit": {
    "domain": "zeit.de",
    "allow_cookies": 1,
    "add_ext_link": "aside#paywall|article",
    "add_ext_link_type": "archive.is",
    "upd_version": "3.5.1.2"
  },
  "EWmagazine.nl": {
    "domain": "ewmagazine.nl",
    "allow_cookies": 1,
    "add_ext_link": "div.paywall|div.entry-content",
    "add_ext_link_type": "archive.is",
    "upd_version": "3.5.0.4"
  },
  "Haaretz": {
    "domain": "haaretz.co.il",
    "allow_cookies": 1,
    "add_ext_link": "meta[property='og:url'][content*='/.']|article header",
    "add_ext_link_type": "archive.is",
    "upd_version": "3.4.9.2"
  },
  "Le Parisien": {
    "domain": "leparisien.fr",
    "allow_cookies": 1,
    "useragent": "googlebot",
    "upd_version": "3.5.0.3"
  },
  "Medienholding Süd": {
    "domain": "###_de_mhs",
    "group": [
      "schwarzwaelder-bote.de",
      "stuttgarter-nachrichten.de",
      "stuttgarter-zeitung.de"
    ],
    "allow_cookies": 1,
    "block_regex": "\\.piano\\.io\\/",
    "useragent": "googlebot",
    "upd_version": "3.5.0.2"
  },
  "The Indian Express": {
    "domain": "indianexpress.com",
    "allow_cookies": 1,
    "block_regex": "cdn\\.ampproject\\.org\\/v\\d\\/amp-access-.+\\.js",
    "cs_code": "[{\"cond\":\"ev-engagement\", \"rm_elem\": 1, \"elems\":[{\"cond\":\"div.ev-meter-content\", \"rm_attrib\": \"style\"}, {\"cond\":\"p.first_intro_para\", \"rm_attrib\": \"class\"}]}]",
    "upd_version": "3.4.9.9"
  },
  "The Irish Examiner": {
    "domain": "irishexaminer.com",
    "allow_cookies": 1,
    "block_regex": "\\.irishexaminer\\.com\\/pu_examiner\\/scripts\\/engage",
    "upd_version": "3.5.0.6"
  },
  "The New York Times": {
    "domain": "nytimes.com",
    "allow_cookies": 1,
    "block_regex": "(\\.nytimes\\.com\\/meter\\.js|mwcm\\.nyt\\.com\\/.+\\.js|cooking\\.nytimes\\.com\\/api\\/.+\\/access)",
    "useragent": "googlebot",
    "upd_version": "3.1.4.0"
  },
  "WirtschaftsWoche": {
    "domain": "wiwo.de",
    "allow_cookies": 1,
    "add_ext_link": "div.o-paywall|article",
    "add_ext_link_type": "archive.is",
    "upd_version": "3.5.1.3"
  }
}
